Beers and Breweries Analysis
…
#Impute NA Values with mean from IBU and ABV columns
df_bud$IBU[is.na(df_bud$IBU)] <- mean(df_bud$IBU, na.rm = TRUE)
df_bud$ABV[is.na(df_bud$ABV)] <- mean(df_bud$ABV, na.rm = TRUE)

How Many Breweries are in Each State?

breweries$State=factor(breweries$State)

breweries_per_state <- breweries %>% group_by(State)%>%tally(name="count")
 
breweries_per_state

## # A tibble: 51 × 2
##    State count
##    <fct> <int>
##  1 " AK"     7
##  2 " AL"     3
##  3 " AR"     2
##  4 " AZ"    11
##  5 " CA"    39
##  6 " CO"    47
##  7 " CT"     8
##  8 " DC"     1
##  9 " DE"     2
## 10 " FL"    15
## # ℹ 41 more rows
…
